4/alu.vcd
$date
	Fri Apr 17 12:29:37 2020
$end
$version
	Icarus Verilog
$end
$timescale
	1s
$end
$scope module alutest $end
$var wire 8 ! O0 [7:0] $end
$var reg 8 " A [7:0] $end
$var reg 8 # B [7:0] $end
$var reg 4 $ C [3:0] $end
$var reg 4 % CC [3:0] $end
$var reg 4 & CTR [3:0] $end
$var reg 8 ' INA [7:0] $end
$var reg 8 ( INB [7:0] $end
$var reg 8 ) O [7:0] $end
$var reg 8 * OUT [7:0] $end
$var reg 1 + ck $end
$scope module ALU $end
$var wire 8 , A [7:0] $end
$var wire 8 - B [7:0] $end
$var wire 4 . CTR [3:0] $end
$var wire 8 / OUT [7:0] $end
$var wire 1 0 ck $end
$var reg 4 1 C [3:0] $end
$var reg 8 2 INA [7:0] $end
$var reg 8 3 INB [7:0] $end
$var reg 8 4 O [7:0] $end
$upscope $end
$upscope $end
$enddefinitions $end
#0
$dumpvars
bx 4
bx 3
bx 2
bx 1
00
bx /
bx .
bx -
bx ,
0+
bx *
bx )
bx (
bx '
bx &
bx %
bx $
bx #
bx "
bx !
$end
#10
1+
10
#20
b1001 &
b1001 .
b10000001 #
b10000001 -
b100100 "
b100100 ,
0+
00
#30
b10100101 *
b10100101 /
b10000001 (
b100100 '
b1001 $
b1001 1
b10000001 3
b100100 2
1+
10
#40
b1101 &
b1101 .
b1101 #
b1101 -
b1100011 "
b1100011 ,
0+
00
#50
b11000110 *
b11000110 /
b10100101 4
b10100101 !
b1101 1
b1101 3
b1100011 2
b10100101 )
b1101 (
b1100011 '
b1001 %
b1101 $
1+
10
#60
b1 &
b1 .
b10010 #
b10010 -
b1100101 "
b1100101 ,
0+
00
#70
b1010011 *
b1010011 /
b11000110 )
b10010 (
b1100101 '
b1101 %
b1 $
b11000110 4
b11000110 !
b1 1
b10010 3
b1100101 2
1+
10
#80
b1101 &
b1101 .
b1110110 #
b1110110 -
b1101 "
b1101 ,
0+
00
#90
b11010 *
b11010 /
b1010011 4
b1010011 !
b1101 1
b1110110 3
b1101 2
b1010011 )
b1110110 (
b1101 '
b1 %
b1101 $
1+
10
#100
b1001 &
b1001 .
b10001100 #
b10001100 -
b11101101 "
b11101101 ,
0+
00
#110
b11101101 *
b11101101 /
b11010 )
b10001100 (
b11101101 '
b1101 %
b1001 $
b11010 4
b11010 !
b1001 1
b10001100 3
b11101101 2
1+
10
#120
b1010 &
b1010 .
b11000101 #
b11000101 -
b11000110 "
b11000110 ,
0+
00
#130
b11 *
b11 /
b11101101 4
b11101101 !
b1010 1
b11000101 3
b11000110 2
b11101101 )
b11000101 (
b11000110 '
b1001 %
b1010 $
1+
10
#140
b10 &
b10 .
b1110111 #
b1110111 -
b11100101 "
b11100101 ,
0+
00
#150
b0 /
b11 )
b1110111 (
b11100101 '
b1010 %
b10 $
b11 4
b11 !
b10 1
b1110111 3
b11100101 2
1+
10
#160
b1110 &
b1110 .
b11110010 #
b11110010 -
b10001111 "
b10001111 ,
0+
00
#170
b11000111 *
b11000111 /
b0 4
b0 !
b1110 1
b11110010 3
b10001111 2
b11110010 (
b10001111 '
b10 %
b1110 $
1+
10
#180
b1100 &
b1100 .
b11000101 #
b11000101 -
b11101000 "
b11101000 ,
0+
00
#190
b1110100 *
b1110100 /
b11000111 )
b11000101 (
b11101000 '
b1110 %
b1100 $
b11000111 4
b11000111 !
b1100 1
b11000101 3
b11101000 2
1+
10
#200
b101 &
b101 .
b101101 #
b101101 -
b10111101 "
b10111101 ,
0+
00
#210
b0 /
b1110100 4
b1110100 !
b101 1
b101101 3
b10111101 2
b1110100 )
b101101 (
b10111101 '
b1100 %
b101 $
1+
10
#220
b0 &
b0 .
b1010 #
b1010 -
b1100011 "
b1100011 ,
0+
00
#230
b1101101 *
b1101101 /
b1010 (
b1100011 '
b101 %
b0 $
b0 4
b0 !
b0 1
b1010 3
b1100011 2
1+
10
#240
b1101 &
b1101 .
b10101010 #
b10101010 -
b100000 "
b100000 ,
0+
00
#250
b1000000 *
b1000000 /
b1101101 4
b1101101 !
b1101 1
b10101010 3
b100000 2
b1101101 )
b10101010 (
b100000 '
b0 %
b1101 $
1+
10
#260
b10011 #
b10011 -
b10010110 "
b10010110 ,
0+
00
#270
b101100 *
b101100 /
b1000000 )
b10011 (
b10010110 '
b1101 %
b1000000 4
b1000000 !
b10011 3
b10010110 2
1+
10
#280
b101 &
b101 .
b1101011 #
b1101011 -
b1010011 "
b1010011 ,
0+
00
#290
b0 /
b101100 4
b101100 !
b101 1
b1101011 3
b1010011 2
b101100 )
b1101011 (
b1010011 '
b101 $
1+
10
#300
b1101 &
b1101 .
b10101110 #
b10101110 -
b10 "
b10 ,
0+
00
#310
b100 *
b100 /
b10101110 (
b10 '
b101 %
b1101 $
b0 4
b0 !
b1101 1
b10101110 3
b10 2
1+
10
#320
b1010 &
b1010 .
b100011 #
b100011 -
b11001111 "
b11001111 ,
0+
00
#330
b11101100 *
b11101100 /
b100 4
b100 !
b1010 1
b100011 3
b11001111 2
b100 )
b100011 (
b11001111 '
b1101 %
b1010 $
1+
10
#340
b10 &
b10 .
b111100 #
b111100 -
b11001010 "
b11001010 ,
0+
00
#350
b0 /
b11101100 )
b111100 (
b11001010 '
b1010 %
b10 $
b11101100 4
b11101100 !
b10 1
b111100 3
b11001010 2
1+
10
#360
b1000 &
b1000 .
b1000001 #
b1000001 -
b10001010 "
b10001010 ,
0+
00
#370
b0 *
b0 4
b0 !
b1000 1
b1000001 3
b10001010 2
b1000001 (
b10001010 '
b10 %
b1000 $
1+
10
#380
b1011 &
b1011 .
b10001001 #
b10001001 -
b1111000 "
b1111000 ,
0+
00
#390
b10000111 *
b10000111 /
b0 )
b10001001 (
b1111000 '
b1000 %
b1011 $
b1011 1
b10001001 3
b1111000 2
1+
10
#400
b1110 &
b1110 .
b11000110 #
b11000110 -
b10110110 "
b10110110 ,
0+
00
#410
b1011011 *
b1011011 /
b10000111 4
b10000111 !
b1110 1
b11000110 3
b10110110 2
b10000111 )
b11000110 (
b10110110 '
b1011 %
b1110 $
1+
10
#420
b1011 &
b1011 .
b101010 #
b101010 -
b10111100 "
b10111100 ,
0+
00
#430
b1000011 *
b1000011 /
b1011011 )
b101010 (
b10111100 '
b1110 %
b1011 $
b1011011 4
b1011011 !
b1011 1
b101010 3
b10111100 2
1+
10
#440
b1111 &
b1111 .
b10000101 #
b10000101 -
b1110001 "
b1110001 ,
0+
00
#450
b11100010 *
b11100010 /
b1000011 4
b1000011 !
b1111 1
b10000101 3
b1110001 2
b1000011 )
b10000101 (
b1110001 '
b1011 %
b1111 $
1+
10
#460
b1110 &
b1110 .
b111010 #
b111010 -
b111011 "
b111011 ,
0+
00
#470
b10011101 *
b10011101 /
b11100010 )
b111010 (
b111011 '
b1111 %
b1110 $
b11100010 4
b11100010 !
b1110 1
b111010 3
b111011 2
1+
10
#480
b1001 &
b1001 .
b11110001 #
b11110001 -
b10101 "
b10101 ,
0+
00
#490
b11110101 *
b11110101 /
b10011101 4
b10011101 !
b1001 1
b11110001 3
b10101 2
b10011101 )
b11110001 (
b10101 '
b1110 %
b1001 $
1+
10
#500
b1111 &
b1111 .
b1001100 #
b1001100 -
b1100010 "
b1100010 ,
0+
00
#510
b11000100 *
b11000100 /
b11110101 )
b1001100 (
b1100010 '
b1001 %
b1111 $
b11110101 4
b11110101 !
b1111 1
b1001100 3
b1100010 2
1+
10
#520
b111 &
b111 .
b11111000 #
b11111000 -
b10001111 "
b10001111 ,
0+
00
#530
b0 /
b11000100 4
b11000100 !
b111 1
b11111000 3
b10001111 2
b11000100 )
b11111000 (
b10001111 '
b1111 %
b111 $
1+
10
#540
b1011 &
b1011 .
b1011100 #
b1011100 -
b10011111 "
b10011111 ,
0+
00
#550
b1100000 *
b1100000 /
b1011100 (
b10011111 '
b111 %
b1011 $
b0 4
b0 !
b1011 1
b1011100 3
b10011111 2
1+
10
#560
b0 &
b0 .
b1001001 #
b1001001 -
b10001001 "
b10001001 ,
0+
00
#570
b11010010 *
b11010010 /
b1100000 4
b1100000 !
b0 1
b1001001 3
b10001001 2
b1100000 )
b1001001 (
b10001001 '
b1011 %
b0 $
1+
10
#580
b110 &
b110 .
b1010001 #
b1010001 -
b11010111 "
b11010111 ,
0+
00
#590
b0 /
b11010010 )
b1010001 (
b11010111 '
b0 %
b110 $
b11010010 4
b11010010 !
b110 1
b1010001 3
b11010111 2
1+
10
#600
b1000 &
b1000 .
b11000010 #
b11000010 -
b1100 "
b1100 ,
0+
00
#610
b0 *
b0 4
b0 !
b1000 1
b11000010 3
b1100 2
b11000010 (
b1100 '
b110 %
b1000 $
1+
10
#620
b10 &
b10 .
b111101 #
b111101 -
b1110111 "
b1110111 ,
0+
00
#630
b0 )
b111101 (
b1110111 '
b1000 %
b10 $
b10 1
b111101 3
b1110111 2
1+
10
#640
b1001 &
b1001 .
b1101101 #
b1101101 -
b1111110 "
b1111110 ,
0+
00
#650
b1111111 *
b1111111 /
b1001 1
b1101101 3
b1111110 2
b1101101 (
b1111110 '
b10 %
b1001 $
1+
10
#660
b101 &
b101 .
b11010011 #
b11010011 -
b11111 "
b11111 ,
0+
00
#670
b0 /
b1111111 )
b11010011 (
b11111 '
b1001 %
b101 $
b1111111 4
b1111111 !
b101 1
b11010011 3
b11111 2
1+
10
#680
b1001 &
b1001 .
b1011011 #
b1011011 -
b1111000 "
b1111000 ,
0+
00
#690
b1111011 *
b1111011 /
b0 4
b0 !
b1001 1
b1011011 3
b1111000 2
b1011011 (
b1111000 '
b101 %
b1001 $
1+
10
#700
b1000 &
b1000 .
b101010 #
b101010 -
b111111 "
b111111 ,
0+
00
#710
b101010 *
b101010 /
b1111011 )
b101010 (
b111111 '
b1001 %
b1000 $
b1111011 4
b1111011 !
b1000 1
b101010 3
b111111 2
1+
10
#720
b1100 &
b1100 .
b10001110 #
b10001110 -
b10000110 "
b10000110 ,
0+
00
#730
b1000011 *
b1000011 /
b101010 4
b101010 !
b1100 1
b10001110 3
b10000110 2
b101010 )
b10001110 (
b10000110 '
b1000 %
b1100 $
1+
10
#740
b11 &
b11 .
b100110 #
b100110 -
b11111010 "
b11111010 ,
0+
00
#750
b0 /
b1000011 )
b100110 (
b11111010 '
b1100 %
b11 $
b1000011 4
b1000011 !
b11 1
b100110 3
b11111010 2
1+
10
#760
b101111 #
b101111 -
b10100011 "
b10100011 ,
0+
00
#770
b0 4
b0 !
b101111 3
b10100011 2
b101111 (
b10100011 '
b11 %
1+
10
#780
b111 &
b111 .
b1000100 #
b1000100 -
b1011111 "
b1011111 ,
0+
00
#790
b1000100 (
b1011111 '
b111 $
b111 1
b1000100 3
b1011111 2
1+
10
#800
b1010 &
b1010 .
b11100110 #
b11100110 -
b11001011 "
b11001011 ,
0+
00
#810
b101101 *
b101101 /
b1010 1
b11100110 3
b11001011 2
b11100110 (
b11001011 '
b111 %
b1010 $
1+
10
#820
b11101101 #
b11101101 -
b101001 "
b101001 ,
0+
00
#830
b11000100 *
b11000100 /
b101101 )
b11101101 (
b101001 '
b1010 %
b101101 4
b101101 !
b11101101 3
b101001 2
1+
10
#840
b1111 &
b1111 .
b10110101 #
b10110101 -
b1100101 "
b1100101 ,
0+
00
#850
b11001010 *
b11001010 /
b11000100 4
b11000100 !
b1111 1
b10110101 3
b1100101 2
b11000100 )
b10110101 (
b1100101 '
b1111 $
1+
10
#860
b0 &
b0 .
b1000100 #
b1000100 -
b1111001 "
b1111001 ,
0+
00
#870
b10111101 *
b10111101 /
b11001010 )
b1000100 (
b1111001 '
b1111 %
b0 $
b11001010 4
b11001010 !
b0 1
b1000100 3
b1111001 2
1+
10
#880
b1110 &
b1110 .
b10101011 #
b10101011 -
b101010 "
b101010 ,
0+
00
#890
b10101 *
b10101 /
b10111101 4
b10111101 !
b1110 1
b10101011 3
b101010 2
b10111101 )
b10101011 (
b101010 '
b0 %
b1110 $
1+
10
#900
b1101 &
b1101 .
b10011010 #
b10011010 -
b11011100 "
b11011100 ,
0+
00
#910
b10111000 *
b10111000 /
b10101 )
b10011010 (
b11011100 '
b1110 %
b1101 $
b10101 4
b10101 !
b1101 1
b10011010 3
b11011100 2
1+
10
#920
b1110 &
b1110 .
b1010110 #
b1010110 -
b11000011 "
b11000011 ,
0+
00
#930
b11100001 *
b11100001 /
b10111000 4
b10111000 !
b1110 1
b1010110 3
b11000011 2
b10111000 )
b1010110 (
b11000011 '
b1101 %
b1110 $
1+
10
#940
b110 &
b110 .
b1010 #
b1010 -
b1100111 "
b1100111 ,
0+
00
#950
b0 /
b11100001 )
b1010 (
b1100111 '
b1110 %
b110 $
b11100001 4
b11100001 !
b110 1
b1010 3
b1100111 2
1+
10
#960
b1000 &
b1000 .
b1111001 #
b1111001 -
b111000 "
b111000 ,
0+
00
#970
b111000 *
b111000 /
b0 4
b0 !
b1000 1
b1111001 3
b111000 2
b1111001 (
b111000 '
b110 %
b1000 $
1+
10
#980
b100 &
b100 .
b10010011 #
b10010011 -
b10010100 "
b10010100 ,
0+
00
#990
b0 /
b111000 )
b10010011 (
b10010100 '
b1000 %
b100 $
b111000 4
b111000 !
b100 1
b10010011 3
b10010100 2
1+
10
