6/fifo.vcd
$date
	Fri Apr 24 12:01:21 2020
$end
$version
	Icarus Verilog
$end
$timescale
	1s
$end
$scope module top $end
$var wire 8 ! Dout [7:0] $end
$var wire 1 " Fempty $end
$var wire 1 # Ffull $end
$var wire 4 $ NRptr [3:0] $end
$var wire 4 % NWptr [3:0] $end
$var reg 8 & Din [7:0] $end
$var reg 1 ' Fempty0 $end
$var reg 1 ( Ffull0 $end
$var reg 1 ) Ren $end
$var reg 4 * Rptr [3:0] $end
$var reg 1 + Wen $end
$var reg 4 , Wptr [3:0] $end
$var reg 1 - ck $end
$var reg 1 . flag $end
$var reg 8 / obuf [7:0] $end
$var reg 1 0 rst $end
$scope module fifo $end
$var wire 8 1 Din [7:0] $end
$var wire 8 2 Dout [7:0] $end
$var wire 4 3 NRp [3:0] $end
$var wire 4 4 NWp [3:0] $end
$var wire 1 5 Ren $end
$var wire 1 6 Wen $end
$var wire 1 7 ck $end
$var wire 1 8 rst $end
$var reg 1 9 Fempty $end
$var reg 1 : Ffull $end
$var reg 4 ; Rp [3:0] $end
$var reg 4 < Wp [3:0] $end
$var reg 8 = obuf [7:0] $end
$upscope $end
$upscope $end
$enddefinitions $end
#0
$dumpvars
bx =
bx <
bx ;
x:
x9
18
07
x6
x5
bx 4
bx 3
bx 2
bx 1
10
bx /
x.
0-
bx ,
x+
bx *
x)
x(
x'
bx &
bx %
bx $
x#
x"
bx !
$end
#10
1-
17
#20
1)
15
0+
06
0.
0-
07
00
08
#30
b1 $
b1 %
b1 3
b1 4
0(
1'
b0 *
b0 ,
0:
0#
19
1"
b0 ;
b0 <
1-
17
#40
0)
05
1+
16
b1001 &
b1001 1
1.
0-
07
#50
1-
17
#60
b1101 &
b1101 1
0-
07
#70
b10 %
b10 4
0'
b1 ,
09
0"
b1 <
1-
17
10
18
#80
b1100101 &
b1100101 1
0-
07
#90
b11 4
b11 %
b10 <
b10 ,
1-
17
#100
1)
15
0+
06
0.
0-
07
#110
b10 $
b10 3
b1 *
b1101 /
b1 ;
b1101 =
b1101 !
b1101 2
1-
17
#120
0)
05
1+
16
b1101 &
b1101 1
1.
0-
07
#130
b100 4
b100 %
b11 <
b11 ,
1-
17
#140
1)
15
0+
06
0.
0-
07
#150
b11 $
b11 3
b10 *
b1100101 /
b10 ;
b1100101 =
b1100101 !
b1100101 2
1-
17
#160
0)
05
1+
16
b11101101 &
b11101101 1
1.
0-
07
#170
b101 4
b101 %
b100 <
b100 ,
1-
17
#180
1)
15
0+
06
0.
0-
07
#190
b100 $
b100 3
b11 *
b1101 /
b11 ;
b1101 =
b1101 !
b1101 2
1-
17
#200
0)
05
1+
16
b11000110 &
b11000110 1
1.
0-
07
#210
b110 4
b110 %
b101 <
b101 ,
1-
17
#220
b10101010 &
b10101010 1
0-
07
#230
b111 %
b111 4
b110 ,
b110 <
1-
17
#240
b1110111 &
b1110111 1
0-
07
#250
b1000 4
b1000 %
b111 <
b111 ,
1-
17
#260
1)
15
0+
06
0.
0-
07
#270
b101 $
b101 3
b100 *
b11101101 /
b100 ;
b11101101 =
b11101101 !
b11101101 2
1-
17
#280
0)
05
1+
16
b11110010 &
b11110010 1
1.
0-
07
#290
b1001 4
b1001 %
b1000 <
b1000 ,
1-
17
#300
1)
15
0+
06
0.
0-
07
#310
b110 $
b110 3
b101 *
b11000110 /
b101 ;
b11000110 =
b11000110 !
b11000110 2
1-
17
#320
0-
07
#330
b111 3
b111 $
b110 ;
b10101010 =
b10101010 !
b10101010 2
b110 *
b10101010 /
1-
17
#340
0)
05
1+
16
b1011100 &
b1011100 1
1.
0-
07
#350
b1010 %
b1010 4
b1001 ,
b1001 <
1-
17
#360
b101101 &
b101101 1
0-
07
#370
b1011 4
b1011 %
b1010 <
b1010 ,
1-
17
#380
b1100011 &
b1100011 1
0-
07
#390
b1100 %
b1100 4
b1011 ,
b1011 <
1-
17
#400
1)
15
0+
06
0.
0-
07
#410
b1000 3
b1000 $
b111 ;
b1110111 =
b1110111 !
b1110111 2
b111 *
b1110111 /
1-
17
#420
0-
07
#430
b1001 $
b1001 3
b1000 *
b11110010 /
b1000 ;
b11110010 =
b11110010 !
b11110010 2
1-
17
#440
0-
07
#450
b1010 3
b1010 $
b1001 ;
b1011100 =
b1011100 !
b1011100 2
b1001 *
b1011100 /
1-
17
#460
0-
07
#470
b1011 $
b1011 3
b1010 *
b101101 /
b1010 ;
b101101 =
b101101 !
b101101 2
1-
17
#480
0)
05
1+
16
b10010110 &
b10010110 1
1.
0-
07
#490
b1101 4
b1101 %
b1100 <
b1100 ,
1-
17
#500
b1101 &
b1101 1
0-
07
#510
b1110 %
b1110 4
b1101 ,
b1101 <
1-
17
#520
b1101011 &
b1101011 1
0-
07
#530
b1111 4
b1111 %
b1110 <
b1110 ,
1-
17
#540
b10 &
b10 1
0-
07
#550
b0 %
b0 4
b1111 ,
b1111 <
1-
17
#560
1)
15
0+
06
0.
0-
07
#570
b1100 3
b1100 $
b1011 ;
b1100011 =
b1100011 !
b1100011 2
b1011 *
b1100011 /
1-
17
#580
0)
05
1+
16
b11001111 &
b11001111 1
1.
0-
07
#590
b1 %
b1 4
b0 ,
b0 <
1-
17
#600
b1010 &
b1010 1
0-
07
#610
b10 4
b10 %
b1 <
b1 ,
1-
17
#620
1)
15
0+
06
0.
0-
07
#630
b1101 $
b1101 3
b1100 *
b10010110 /
b1100 ;
b10010110 =
b10010110 !
b10010110 2
1-
17
#640
0-
07
#650
b1110 3
b1110 $
b1101 ;
b1101 =
b1101 !
b1101 2
b1101 *
b1101 /
1-
17
#660
0-
07
#670
b1111 $
b1111 3
b1110 *
b1101011 /
b1110 ;
b1101011 =
b1101011 !
b1101011 2
1-
17
#680
0-
07
#690
b0 3
b0 $
b1111 ;
b10 =
b10 !
b10 2
b1111 *
b10 /
1-
17
#700
0)
05
1+
16
b11011000 &
b11011000 1
1.
0-
07
#710
b11 %
b11 4
b10 ,
b10 <
1-
17
#720
1)
15
0+
06
0.
0-
07
#730
b1 3
b1 $
b0 ;
b11001111 =
b11001111 !
b11001111 2
b0 *
b11001111 /
1-
17
#740
0)
05
1+
16
b11101011 &
b11101011 1
1.
0-
07
#750
b100 %
b100 4
b11 ,
b11 <
1-
17
#760
1)
15
0+
06
0.
0-
07
#770
b10 3
b10 $
b1 ;
b1010 =
b1010 !
b1010 2
b1 *
b1010 /
1-
17
#780
0-
07
#790
b11 $
b11 3
b10 *
b11011000 /
b10 ;
b11011000 =
b11011000 !
b11011000 2
1-
17
#800
0-
07
#810
b100 3
b100 $
19
1"
b11 ;
b11101011 =
b11101011 !
b11101011 2
1'
b11 *
b11101011 /
1-
17
#820
0-
07
#830
1-
17
#840
0-
07
#850
1-
17
#860
0)
05
1+
16
b1110001 &
b1110001 1
1.
0-
07
#870
b101 %
b101 4
0'
b100 ,
09
0"
b100 <
1-
17
#880
b1001111 &
b1001111 1
0-
07
#890
b110 4
b110 %
b101 <
b101 ,
1-
17
#900
b111010 &
b111010 1
0-
07
#910
b111 %
b111 4
b110 ,
b110 <
1-
17
#920
1)
15
0+
06
0.
0-
07
#930
b101 3
b101 $
b100 ;
b1110001 =
b1110001 !
b1110001 2
b100 *
b1110001 /
1-
17
#940
0)
05
1+
16
b11110001 &
b11110001 1
1.
0-
07
#950
b1000 %
b1000 4
b111 ,
b111 <
1-
17
#960
b1100010 &
b1100010 1
0-
07
#970
b1001 4
b1001 %
b1000 <
b1000 ,
1-
17
#980
1)
15
0+
06
0.
0-
07
#990
b110 $
b110 3
b101 *
b1001111 /
b101 ;
b1001111 =
b1001111 !
b1001111 2
1-
17
#1000
0)
05
1+
16
b10001111 &
b10001111 1
1.
0-
07
#1010
b1010 4
b1010 %
b1001 <
b1001 ,
1-
17
#1020
1)
15
0+
06
0.
0-
07
#1030
b111 $
b111 3
b110 *
b111010 /
b110 ;
b111010 =
b111010 !
b111010 2
1-
17
#1040
0)
05
1+
16
b10011111 &
b10011111 1
1.
0-
07
#1050
b1011 4
b1011 %
b1010 <
b1010 ,
1-
17
#1060
1)
15
0+
06
0.
0-
07
#1070
b1000 $
b1000 3
b111 *
b11110001 /
b111 ;
b11110001 =
b11110001 !
b11110001 2
1-
17
#1080
0)
05
1+
16
b10001001 &
b10001001 1
1.
0-
07
#1090
b1100 4
b1100 %
b1011 <
b1011 ,
1-
17
#1100
b11010000 &
b11010000 1
0-
07
#1110
b1101 %
b1101 4
b1100 ,
b1100 <
1-
17
#1120
b1010001 &
b1010001 1
0-
07
#1130
b1110 4
b1110 %
b1101 <
b1101 ,
1-
17
#1140
1)
15
0+
06
0.
0-
07
#1150
b1001 $
b1001 3
b1000 *
b1100010 /
b1000 ;
b1100010 =
b1100010 !
b1100010 2
1-
17
#1160
0-
07
#1170
b1010 3
b1010 $
b1001 ;
b10001111 =
b10001111 !
b10001111 2
b1001 *
b10001111 /
1-
17
#1180
0-
07
#1190
b1011 $
b1011 3
b1010 *
b10011111 /
b1010 ;
b10011111 =
b10011111 !
b10011111 2
1-
17
#1200
0-
07
#1210
b1100 3
b1100 $
b1011 ;
b10001001 =
b10001001 !
b10001001 2
b1011 *
b10001001 /
1-
17
#1220
0)
05
1+
16
b111101 &
b111101 1
1.
0-
07
#1230
b1111 %
b1111 4
b1110 ,
b1110 <
1-
17
#1240
1)
15
0+
06
0.
0-
07
#1250
b1101 3
b1101 $
b1100 ;
b11010000 =
b11010000 !
b11010000 2
b1100 *
b11010000 /
1-
17
#1260
0-
07
#1270
b1110 $
b1110 3
b1101 *
b1010001 /
b1101 ;
b1010001 =
b1010001 !
b1010001 2
1-
17
#1280
0)
05
1+
16
b111001 &
b111001 1
1.
0-
07
#1290
b0 4
b0 %
b1111 <
b1111 ,
1-
17
#1300
b11010011 &
b11010011 1
0-
07
#1310
b1 %
b1 4
b0 ,
b0 <
1-
17
#1320
b1111000 &
b1111000 1
0-
07
#1330
b10 4
b10 %
b1 <
b1 ,
1-
17
#1340
b1001001 &
b1001001 1
0-
07
#1350
b11 %
b11 4
b10 ,
b10 <
1-
17
#1360
b101010 &
b101010 1
0-
07
#1370
b100 4
b100 %
b11 <
b11 ,
1-
17
#1380
1)
15
0+
06
0.
0-
07
#1390
b1111 $
b1111 3
b1110 *
b111101 /
b1110 ;
b111101 =
b111101 !
b111101 2
1-
17
#1400
0-
07
#1410
b0 3
b0 $
b1111 ;
b111001 =
b111001 !
b111001 2
b1111 *
b111001 /
1-
17
#1420
0-
07
#1430
b1 $
b1 3
b0 *
b11010011 /
b0 ;
b11010011 =
b11010011 !
b11010011 2
1-
17
#1440
0-
07
#1450
b10 3
b10 $
b1 ;
b1111000 =
b1111000 !
b1111000 2
b1 *
b1111000 /
1-
17
#1460
0-
07
#1470
b11 $
b11 3
b10 *
b1001001 /
b10 ;
b1001001 =
b1001001 !
b1001001 2
1-
17
#1480
0-
07
#1490
b100 3
b100 $
19
1"
b11 ;
b101010 =
b101010 !
b101010 2
1'
b11 *
b101010 /
1-
17
#1500
0)
05
1+
16
b10100011 &
b10100011 1
1.
0-
07
#1510
b101 %
b101 4
0'
b100 ,
09
0"
b100 <
1-
17
#1520
b10110011 &
b10110011 1
0-
07
#1530
b110 4
b110 %
b101 <
b101 ,
1-
17
#1540
b1000100 &
b1000100 1
0-
07
#1550
b111 %
b111 4
b110 ,
b110 <
1-
17
#1560
b11001011 &
b11001011 1
0-
07
#1570
b1000 4
b1000 %
b111 <
b111 ,
1-
17
#1580
1)
15
0+
06
0.
0-
07
#1590
b101 $
b101 3
b100 *
b10100011 /
b100 ;
b10100011 =
b10100011 !
b10100011 2
1-
17
#1600
0-
07
#1610
b110 3
b110 $
b101 ;
b10110011 =
b10110011 !
b10110011 2
b101 *
b10110011 /
1-
17
#1620
0)
05
1+
16
b11101101 &
b11101101 1
1.
0-
07
#1630
b1001 %
b1001 4
b1000 ,
b1000 <
1-
17
#1640
1)
15
0+
06
0.
0-
07
#1650
b111 3
b111 $
b110 ;
b1000100 =
b1000100 !
b1000100 2
b110 *
b1000100 /
1-
17
#1660
0)
05
1+
16
b10110101 &
b10110101 1
1.
0-
07
#1670
b1010 %
b1010 4
b1001 ,
b1001 <
1-
17
#1680
b1111001 &
b1111001 1
0-
07
#1690
b1011 4
b1011 %
b1010 <
b1010 ,
1-
17
#1700
1)
15
0+
06
0.
0-
07
#1710
b1000 $
b1000 3
b111 *
b11001011 /
b111 ;
b11001011 =
b11001011 !
b11001011 2
1-
17
#1720
0-
07
#1730
b1001 3
b1001 $
b1000 ;
b11101101 =
b11101101 !
b11101101 2
b1000 *
b11101101 /
1-
17
#1740
0-
07
#1750
b1010 $
b1010 3
b1001 *
b10110101 /
b1001 ;
b10110101 =
b10110101 !
b10110101 2
1-
17
#1760
0)
05
1+
16
b1110 &
b1110 1
1.
0-
07
#1770
b1100 4
b1100 %
b1011 <
b1011 ,
1-
17
#1780
1)
15
0+
06
0.
0-
07
#1790
b1011 $
b1011 3
b1010 *
b1111001 /
b1010 ;
b1111001 =
b1111001 !
b1111001 2
1-
17
#1800
0-
07
#1810
b1100 3
b1100 $
19
1"
b1011 ;
b1110 =
b1110 !
b1110 2
1'
b1011 *
b1110 /
1-
17
#1820
0)
05
1+
16
b11000011 &
b11000011 1
1.
0-
07
#1830
b1101 %
b1101 4
0'
b1100 ,
09
0"
b1100 <
1-
17
#1840
1)
15
0+
06
0.
0-
07
#1850
b1101 3
b1101 $
19
1"
b1100 ;
b11000011 =
b11000011 !
b11000011 2
1'
b1100 *
b11000011 /
1-
17
#1860
0-
07
#1870
1-
17
#1880
0)
05
1+
16
b1010 &
b1010 1
1.
0-
07
#1890
b1110 4
b1110 %
09
0"
b1101 <
0'
b1101 ,
1-
17
#1900
1)
15
0+
06
0.
0-
07
#1910
b1110 $
b1110 3
1'
b1101 *
b1010 /
19
1"
b1101 ;
b1010 =
b1010 !
b1010 2
1-
17
#1920
0-
07
#1930
1-
17
#1940
0)
05
1+
16
b10111000 &
b10111000 1
1.
0-
07
#1950
b1111 %
b1111 4
0'
b1110 ,
09
0"
b1110 <
1-
17
#1960
1)
15
0+
06
0.
0-
07
#1970
b1111 3
b1111 $
19
1"
b1110 ;
b10111000 =
b10111000 !
b10111000 2
1'
b1110 *
b10111000 /
1-
17
#1980
0)
05
1+
16
b100 &
b100 1
1.
0-
07
#1990
b0 %
b0 4
0'
b1111 ,
09
0"
b1111 <
1-
17
#2000
b11011011 &
b11011011 1
0-
07
#2010
b1 4
b1 %
b0 <
b0 ,
1-
17
#2020
b11011001 &
b11011001 1
0-
07
#2030
b10 %
b10 4
b1 ,
b1 <
1-
17
#2040
b1110110 &
b1110110 1
0-
07
#2050
b11 4
b11 %
b10 <
b10 ,
1-
17
#2060
1)
15
0+
06
0.
0-
07
#2070
b0 $
b0 3
b1111 *
b100 /
b1111 ;
b100 =
b100 !
b100 2
1-
17
#2080
0-
07
#2090
b1 3
b1 $
b0 ;
b11011011 =
b11011011 !
b11011011 2
b0 *
b11011011 /
1-
17
#2100
0)
05
1+
16
b1000110 &
b1000110 1
1.
0-
07
#2110
b100 %
b100 4
b11 ,
b11 <
1-
17
#2120
1)
15
0+
06
0.
0-
07
#2130
b10 3
b10 $
b1 ;
b11011001 =
b11011001 !
b11011001 2
b1 *
b11011001 /
1-
17
#2140
0)
05
1+
16
b1101001 &
b1101001 1
1.
0-
07
#2150
b101 %
b101 4
b100 ,
b100 <
1-
17
#2160
1)
15
0+
06
0.
0-
07
#2170
b11 3
b11 $
b10 ;
b1110110 =
b1110110 !
b1110110 2
b10 *
b1110110 /
1-
17
#2180
0-
07
#2190
b100 $
b100 3
b11 *
b1000110 /
b11 ;
b1000110 =
b1000110 !
b1000110 2
1-
17
#2200
0-
07
#2210
b101 3
b101 $
19
1"
b100 ;
b1101001 =
b1101001 !
b1101001 2
1'
b100 *
b1101001 /
1-
17
#2220
0)
05
1+
16
b11000111 &
b11000111 1
1.
0-
07
#2230
b110 %
b110 4
0'
b101 ,
09
0"
b101 <
1-
17
#2240
1)
15
0+
06
0.
0-
07
#2250
b110 3
b110 $
19
1"
b101 ;
b11000111 =
b11000111 !
b11000111 2
1'
b101 *
b11000111 /
1-
17
#2260
0-
07
#2270
1-
17
#2280
0-
07
#2290
1-
17
#2300
0)
05
1+
16
b101001 &
b101001 1
1.
0-
07
#2310
b111 %
b111 4
0'
b110 ,
09
0"
b110 <
1-
17
#2320
1)
15
0+
06
0.
0-
07
#2330
b111 3
b111 $
19
1"
b110 ;
b101001 =
b101001 !
b101001 2
1'
b110 *
b101001 /
1-
17
#2340
0-
07
#2350
1-
17
#2360
0-
07
#2370
1-
17
#2380
0)
05
1+
16
b1100110 &
b1100110 1
1.
0-
07
#2390
b1000 %
b1000 4
0'
b111 ,
09
0"
b111 <
1-
17
#2400
1)
15
0+
06
0.
0-
07
#2410
b1000 3
b1000 $
19
1"
b111 ;
b1100110 =
b1100110 !
b1100110 2
1'
b111 *
b1100110 /
1-
17
#2420
0)
05
1+
16
b10111010 &
b10111010 1
1.
0-
07
#2430
b1001 %
b1001 4
0'
b1000 ,
09
0"
b1000 <
1-
17
#2440
1)
15
0+
06
0.
0-
07
#2450
b1001 3
b1001 $
19
1"
b1000 ;
b10111010 =
b10111010 !
b10111010 2
1'
b1000 *
b10111010 /
1-
17
#2460
0-
07
#2470
1-
17
#2480
0)
05
1+
16
b11010 &
b11010 1
1.
0-
07
#2490
b1010 4
b1010 %
09
0"
b1001 <
0'
b1001 ,
1-
17
#2500
b110111 &
b110111 1
0-
07
#2510
b1011 %
b1011 4
b1010 ,
b1010 <
1-
17
#2520
1)
15
0+
06
0.
0-
07
#2530
b1010 3
b1010 $
b1001 ;
b11010 =
b11010 !
b11010 2
b1001 *
b11010 /
1-
17
#2540
0-
07
#2550
b1011 $
b1011 3
1'
b1010 *
b110111 /
19
1"
b1010 ;
b110111 =
b110111 !
b110111 2
1-
17
#2560
0-
07
#2570
1-
17
#2580
0-
07
#2590
1-
17
#2600
0)
05
1+
16
b11011100 &
b11011100 1
1.
0-
07
#2610
b1100 4
b1100 %
09
0"
b1011 <
0'
b1011 ,
1-
17
#2620
1)
15
0+
06
0.
0-
07
#2630
b1100 $
b1100 3
1'
b1011 *
b11011100 /
19
1"
b1011 ;
b11011100 =
b11011100 !
b11011100 2
1-
17
#2640
0-
07
#2650
1-
17
#2660
0-
07
#2670
1-
17
#2680
0)
05
1+
16
b11001111 &
b11001111 1
1.
0-
07
#2690
b1101 4
b1101 %
09
0"
b1100 <
0'
b1100 ,
1-
17
#2700
b11111010 &
b11111010 1
0-
07
#2710
b1110 %
b1110 4
b1101 ,
b1101 <
1-
17
#2720
b10111 &
b10111 1
0-
07
#2730
b1111 4
b1111 %
b1110 <
b1110 ,
1-
17
#2740
b10000110 &
b10000110 1
0-
07
#2750
b0 %
b0 4
b1111 ,
b1111 <
1-
17
#2760
1)
15
0+
06
0.
0-
07
#2770
b1101 3
b1101 $
b1100 ;
b11001111 =
b11001111 !
b11001111 2
b1100 *
b11001111 /
1-
17
#2780
0)
05
1+
16
b110101 &
b110101 1
1.
0-
07
#2790
b1 %
b1 4
b0 ,
b0 <
1-
17
#2800
b11000001 &
b11000001 1
0-
07
#2810
b10 4
b10 %
b1 <
b1 ,
1-
17
#2820
b10011000 &
b10011000 1
0-
07
#2830
b11 %
b11 4
b10 ,
b10 <
1-
17
#2840
b1110011 &
b1110011 1
0-
07
#2850
b100 4
b100 %
b11 <
b11 ,
1-
17
#2860
1)
15
0+
06
0.
0-
07
#2870
b1110 $
b1110 3
b1101 *
b11111010 /
b1101 ;
b11111010 =
b11111010 !
b11111010 2
1-
17
#2880
0-
07
#2890
b1111 3
b1111 $
b1110 ;
b10111 =
b10111 !
b10111 2
b1110 *
b10111 /
1-
17
#2900
0-
07
#2910
b0 $
b0 3
b1111 *
b10000110 /
b1111 ;
b10000110 =
b10000110 !
b10000110 2
1-
17
#2920
0-
07
#2930
b1 3
b1 $
b0 ;
b110101 =
b110101 !
b110101 2
b0 *
b110101 /
1-
17
#2940
0)
05
1+
16
b10100001 &
b10100001 1
1.
0-
07
#2950
b101 %
b101 4
b100 ,
b100 <
1-
17
#2960
1)
15
0+
06
0.
0-
07
#2970
b10 3
b10 $
b1 ;
b11000001 =
b11000001 !
b11000001 2
b1 *
b11000001 /
1-
17
#2980
0-
07
#2990
b11 $
b11 3
b10 *
b10011000 /
b10 ;
b10011000 =
b10011000 !
b10011000 2
1-
17
#3000
0)
05
1+
16
b101010 &
b101010 1
1.
0-
07
#3010
b110 4
b110 %
b101 <
b101 ,
1-
17
#3020
1)
15
0+
06
0.
0-
07
#3030
b100 $
b100 3
b11 *
b1110011 /
b11 ;
b1110011 =
b1110011 !
b1110011 2
1-
17
#3040
0)
05
1+
16
b10011110 &
b10011110 1
1.
0-
07
#3050
b111 4
b111 %
b110 <
b110 ,
1-
17
#3060
1)
15
0+
06
0.
0-
07
#3070
b101 $
b101 3
b100 *
b10100001 /
b100 ;
b10100001 =
b10100001 !
b10100001 2
1-
17
#3080
0)
05
1+
16
b11001000 &
b11001000 1
1.
0-
07
#3090
b1000 4
b1000 %
b111 <
b111 ,
1-
17
#3100
1)
15
0+
06
0.
0-
07
#3110
b110 $
b110 3
b101 *
b101010 /
b101 ;
b101010 =
b101010 !
b101010 2
1-
17
#3120
0)
05
1+
16
b1101011 &
b1101011 1
1.
0-
07
#3130
b1001 4
b1001 %
b1000 <
b1000 ,
1-
17
#3140
b10110110 &
b10110110 1
0-
07
#3150
b1010 %
b1010 4
b1001 ,
b1001 <
1-
17
#3160
1)
15
0+
06
0.
0-
07
#3170
b111 3
b111 $
b110 ;
b10011110 =
b10011110 !
b10011110 2
b110 *
b10011110 /
1-
17
#3180
0-
07
#3190
b1000 $
b1000 3
b111 *
b11001000 /
b111 ;
b11001000 =
b11001000 !
b11001000 2
1-
17
#3200
0)
05
1+
16
b10010010 &
b10010010 1
1.
0-
07
#3210
b1011 4
b1011 %
b1010 <
b1010 ,
1-
17
#3220
1)
15
0+
06
0.
0-
07
#3230
b1001 $
b1001 3
b1000 *
b1101011 /
b1000 ;
b1101011 =
b1101011 !
b1101011 2
1-
17
#3240
0)
05
1+
16
b10000110 &
b10000110 1
1.
0-
07
#3250
b1100 4
b1100 %
b1011 <
b1011 ,
1-
17
#3260
1)
15
0+
06
0.
0-
07
#3270
b1010 $
b1010 3
b1001 *
b10110110 /
b1001 ;
b10110110 =
b10110110 !
b10110110 2
1-
17
#3280
0-
07
#3290
b1011 3
b1011 $
b1010 ;
b10010010 =
b10010010 !
b10010010 2
b1010 *
b10010010 /
1-
17
#3300
0-
07
#3310
b1100 $
b1100 3
1'
b1011 *
b10000110 /
19
1"
b1011 ;
b10000110 =
b10000110 !
b10000110 2
1-
17
#3320
0)
05
1+
16
b10000100 &
b10000100 1
1.
0-
07
#3330
b1101 4
b1101 %
09
0"
b1100 <
0'
b1100 ,
1-
17
#3340
1)
15
0+
06
0.
0-
07
#3350
b1101 $
b1101 3
1'
b1100 *
b10000100 /
19
1"
b1100 ;
b10000100 =
b10000100 !
b10000100 2
1-
17
#3360
0-
07
#3370
1-
17
#3380
0)
05
1+
16
b10100001 &
b10100001 1
1.
0-
07
#3390
b1110 %
b1110 4
0'
b1101 ,
09
0"
b1101 <
1-
17
#3400
1)
15
0+
06
0.
0-
07
#3410
b1110 3
b1110 $
19
1"
b1101 ;
b10100001 =
b10100001 !
b10100001 2
1'
b1101 *
b10100001 /
1-
17
#3420
0)
05
1+
16
b1011 &
b1011 1
1.
0-
07
#3430
b1111 %
b1111 4
0'
b1110 ,
09
0"
b1110 <
1-
17
#3440
b11001001 &
b11001001 1
0-
07
#3450
b0 4
b0 %
b1111 <
b1111 ,
1-
17
#3460
1)
15
0+
06
0.
0-
07
#3470
b1111 $
b1111 3
b1110 *
b1011 /
b1110 ;
b1011 =
b1011 !
b1011 2
1-
17
#3480
0)
05
1+
16
b10001111 &
b10001111 1
1.
0-
07
#3490
b1 4
b1 %
b0 <
b0 ,
1-
17
#3500
b10001000 &
b10001000 1
0-
07
#3510
b10 %
b10 4
b1 ,
b1 <
1-
17
#3520
1)
15
0+
06
0.
0-
07
#3530
b0 3
b0 $
b1111 ;
b11001001 =
b11001001 !
b11001001 2
b1111 *
b11001001 /
1-
17
#3540
0)
05
1+
16
b10010010 &
b10010010 1
1.
0-
07
#3550
b11 %
b11 4
b10 ,
b10 <
1-
17
#3560
1)
15
0+
06
0.
0-
07
#3570
b1 3
b1 $
b0 ;
b10001111 =
b10001111 !
b10001111 2
b0 *
b10001111 /
1-
17
#3580
0)
05
1+
16
b1001011 &
b1001011 1
1.
0-
07
#3590
b100 %
b100 4
b11 ,
b11 <
1-
17
#3600
1)
15
0+
06
0.
0-
07
#3610
b10 3
b10 $
b1 ;
b10001000 =
b10001000 !
b10001000 2
b1 *
b10001000 /
1-
17
#3620
0-
07
#3630
b11 $
b11 3
b10 *
b10010010 /
b10 ;
b10010010 =
b10010010 !
b10010010 2
1-
17
#3640
0)
05
1+
16
b11101100 &
b11101100 1
1.
0-
07
#3650
b101 4
b101 %
b100 <
b100 ,
1-
17
#3660
1)
15
0+
06
0.
0-
07
#3670
b100 $
b100 3
b11 *
b1001011 /
b11 ;
b1001011 =
b1001011 !
b1001011 2
1-
17
#3680
0)
05
1+
16
b10000110 &
b10000110 1
1.
0-
07
#3690
b110 4
b110 %
b101 <
b101 ,
1-
17
#3700
b111011 &
b111011 1
0-
07
#3710
b111 %
b111 4
b110 ,
b110 <
1-
17
#3720
1)
15
0+
06
0.
0-
07
#3730
b101 3
b101 $
b100 ;
b11101100 =
b11101100 !
b11101100 2
b100 *
b11101100 /
1-
17
#3740
0)
05
1+
16
b1010110 &
b1010110 1
1.
0-
07
#3750
b1000 %
b1000 4
b111 ,
b111 <
1-
17
#3760
b11100010 &
b11100010 1
0-
07
#3770
b1001 4
b1001 %
b1000 <
b1000 ,
1-
17
#3780
1)
15
0+
06
0.
0-
07
#3790
b110 $
b110 3
b101 *
b10000110 /
b101 ;
b10000110 =
b10000110 !
b10000110 2
1-
17
#3800
0)
05
1+
16
b11011000 &
b11011000 1
1.
0-
07
#3810
b1010 4
b1010 %
b1001 <
b1001 ,
1-
17
#3820
1)
15
0+
06
0.
0-
07
#3830
b111 $
b111 3
b110 *
b111011 /
b110 ;
b111011 =
b111011 !
b111011 2
1-
17
#3840
0-
07
#3850
b1000 3
b1000 $
b111 ;
b1010110 =
b1010110 !
b1010110 2
b111 *
b1010110 /
1-
17
#3860
0)
05
1+
16
b11100101 &
b11100101 1
1.
0-
07
#3870
b1011 %
b1011 4
b1010 ,
b1010 <
1-
17
#3880
b101011 &
b101011 1
0-
07
#3890
b1100 4
b1100 %
b1011 <
b1011 ,
1-
17
#3900
b11001000 &
b11001000 1
0-
07
#3910
b1101 %
b1101 4
b1100 ,
b1100 <
1-
17
#3920
b10100001 &
b10100001 1
0-
07
#3930
b1110 4
b1110 %
b1101 <
b1101 ,
1-
17
#3940
b100 &
b100 1
0-
07
#3950
b1111 %
b1111 4
b1110 ,
b1110 <
1-
17
#3960
1)
15
0+
06
0.
0-
07
#3970
b1001 3
b1001 $
b1000 ;
b11100010 =
b11100010 !
b11100010 2
b1000 *
b11100010 /
1-
17
#3980
0-
07
#3990
b1010 $
b1010 3
b1001 *
b11011000 /
b1001 ;
b11011000 =
b11011000 !
b11011000 2
1-
17
#4000
0-
07
#4010
b1011 3
b1011 $
b1010 ;
b11100101 =
b11100101 !
b11100101 2
b1010 *
b11100101 /
1-
17
#4020
0-
07
#4030
b1100 $
b1100 3
b1011 *
b101011 /
b1011 ;
b101011 =
b101011 !
b101011 2
1-
17
#4040
0-
07
#4050
b1101 3
b1101 $
b1100 ;
b11001000 =
b11001000 !
b11001000 2
b1100 *
b11001000 /
1-
17
#4060
0)
05
1+
16
b1010101 &
b1010101 1
1.
0-
07
#4070
b0 %
b0 4
b1111 ,
b1111 <
1-
17
#4080
b101011 &
b101011 1
0-
07
#4090
b1 4
b1 %
b0 <
b0 ,
1-
17
#4100
b10101101 &
b10101101 1
0-
07
#4110
b10 %
b10 4
b1 ,
b1 <
1-
17
#4120
b10000100 &
b10000100 1
0-
07
#4130
b11 4
b11 %
b10 <
b10 ,
1-
17
#4140
b11100111 &
b11100111 1
0-
07
#4150
b100 %
b100 4
b11 ,
b11 <
1-
17
#4160
b1001001 &
b1001001 1
0-
07
#4170
b101 4
b101 %
b100 <
b100 ,
1-
17
#4180
b11001001 &
b11001001 1
0-
07
#4190
b110 %
b110 4
b101 ,
b101 <
1-
17
#4200
b10100001 &
b10100001 1
0-
07
#4210
b111 4
b111 %
b110 <
b110 ,
1-
17
#4220
1)
15
0+
06
0.
0-
07
#4230
b1110 $
b1110 3
b1101 *
b10100001 /
b1101 ;
b10100001 =
b10100001 !
b10100001 2
1-
17
#4240
0-
07
#4250
b1111 3
b1111 $
b1110 ;
b100 =
b100 !
b100 2
b1110 *
b100 /
1-
17
#4260
0)
05
1+
16
b10000011 &
b10000011 1
1.
0-
07
#4270
b1000 %
b1000 4
b111 ,
b111 <
1-
17
#4280
1)
15
0+
06
0.
0-
07
#4290
b0 3
b0 $
b1111 ;
b1010101 =
b1010101 !
b1010101 2
b1111 *
b1010101 /
1-
17
#4300
0-
07
#4310
b1 $
b1 3
b0 *
b101011 /
b0 ;
b101011 =
b101011 !
b101011 2
1-
17
#4320
0-
07
#4330
b10 3
b10 $
b1 ;
b10101101 =
b10101101 !
b10101101 2
b1 *
b10101101 /
1-
17
#4340
0-
07
#4350
b11 $
b11 3
b10 *
b10000100 /
b10 ;
b10000100 =
b10000100 !
b10000100 2
1-
17
#4360
0)
05
1+
16
b10000110 &
b10000110 1
1.
0-
07
